pane	0	1	:vi	0	:-	0	:/home/varun/Projects/s-varun.gitlab.io	1	vi	:vi index.html
pane	0	2	:vi	1	:*	0	:/home/varun	1	vi	:vi /home/varun/.vimrc
window	0	1	0	:-	b49e,204x61,0,0,1
window	0	2	1	:*	b4a0,204x61,0,0,3
state	0	
